{
  "locator": "object.static.struct.scaffold.iron",
  "resources": [
    {
      "name": "texture",
      "path": "data/atoms/object/static/struct/scaffold/iron",
      "clazz": "com.badlogic.gdx.graphics.Texture",
      "fileName": "texture.png",
      "type": "TEXTURE"
    }
  ],
  "mandatoryProps": [],
  "atomProps": {
    "WIDTH": 1,
    "HEIGHT": 1
  }
}