{
  "locator": "pawn.intelligent.human.male",
  "resources": [
    {
      "name": "body-atlas",
      "path": "data/atoms/pawn/intelligent/human/textures/body",
      "clazz": "com.badlogic.gdx.graphics.g2d.TextureAtlas",
      "fileName": "body.atlas",
      "type": "ATLAS"
    },
    {
      "name": "head-atlas",
      "path": "data/atoms/pawn/intelligent/human/male/textures/heads",
      "clazz": "com.badlogic.gdx.graphics.g2d.TextureAtlas",
      "fileName": "heads.atlas",
      "type": "ATLAS"
    }
  ],
  "mandatoryProps": ["BODY_TYPE", "HEAD_TYPE", "SKIN_COLOR", "FACING_DIRECTION"],
  "atomProps": {}
}